{
  "label_aps": {
    "car": {
      "0.5": 0.38538431281272856,
      "1.0": 0.588418841713165,
      "2.0": 0.6951496942775572,
      "4.0": 0.7363467549588226
    },
    "truck": {
      "0.5": 0.1369814570981636,
      "1.0": 0.24908000665610033,
      "2.0": 0.254574160177623,
      "4.0": 0.26268684738515014
    },
    "bus": {
      "0.5": 0.0,
      "1.0": 0.0,
      "2.0": 0.03687084739288807,
      "4.0": 0.03687084739288807
    },
    "trailer": {
      "0.5": 0.0,
      "1.0": 0.0,
      "2.0": 0.0,
      "4.0": 0.0
    },
    "construction_vehicle": {
      "0.5": 0.0,
      "1.0": 0.0,
      "2.0": 0.0,
      "4.0": 0.0
    },
    "pedestrian": {
      "0.5": 0.6189312706275604,
      "1.0": 0.7032655256030356,
      "2.0": 0.7367269082334371,
      "4.0": 0.806723263779948
    },
    "motorcycle": {
      "0.5": 0.020130443751969172,
      "1.0": 0.046259995391905874,
      "2.0": 0.061903867377844465,
      "4.0": 0.07811250101473756
    },
    "bicycle": {
      "0.5": 0.0,
      "1.0": 0.0,
      "2.0": 0.0,
      "4.0": 0.0
    },
    "traffic_cone": {
      "0.5": 0.0,
      "1.0": 0.0,
      "2.0": 0.0,
      "4.0": 0.0
    },
    "barrier": {
      "0.5": 0.0,
      "1.0": 0.0,
      "2.0": 0.0,
      "4.0": 0.0
    }
  },
  "mean_dist_aps": {
    "car": 0.6013249009405683,
    "truck": 0.22583061782925926,
    "bus": 0.018435423696444034,
    "trailer": 0.0,
    "construction_vehicle": 0.0,
    "pedestrian": 0.7164117420609952,
    "motorcycle": 0.05160170188411427,
    "bicycle": 0.0,
    "traffic_cone": 0.0,
    "barrier": 0.0
  },
  "mean_ap": 0.1613604386411381,
  "label_tp_errors": {
    "car": {
      "trans_err": 0.3181479858927174,
      "scale_err": 0.19608321767381504,
      "orient_err": 0.8510329434298194,
      "vel_err": 0.35501341935537095,
      "attr_err": 0.17792497614928687
    },
    "truck": {
      "trans_err": 0.3052850275141765,
      "scale_err": 0.22441741394700054,
      "orient_err": 0.3568997038436967,
      "vel_err": 0.3157768507165322,
      "attr_err": 0.09756644277927756
    },
    "bus": {
      "trans_err": 1.00520687140397,
      "scale_err": 0.23333541251232315,
      "orient_err": 0.9770263241021605,
      "vel_err": 3.5361415149860456,
      "attr_err": 0.18717726488446673
    },
    "trailer": {
      "trans_err": 1.0,
      "scale_err": 1.0,
      "orient_err": 1.0,
      "vel_err": 1.0,
      "attr_err": 1.0
    },
    "construction_vehicle": {
      "trans_err": 1.0,
      "scale_err": 1.0,
      "orient_err": 1.0,
      "vel_err": 1.0,
      "attr_err": 1.0
    },
    "pedestrian": {
      "trans_err": 0.3245701453638932,
      "scale_err": 0.29421997336359035,
      "orient_err": 1.3507722228497059,
      "vel_err": 0.9978495231508169,
      "attr_err": 0.3054888342412348
    },
    "motorcycle": {
      "trans_err": 0.42720953771133874,
      "scale_err": 0.33480979663339067,
      "orient_err": 1.248330309776191,
      "vel_err": 0.16646141045262564,
      "attr_err": 0.09265700648395897
    },
    "bicycle": {
      "trans_err": 0.537251947159207,
      "scale_err": 0.2773851352686459,
      "orient_err": 2.113551156317723,
      "vel_err": 0.05155955221081894,
      "attr_err": 0.0
    },
    "traffic_cone": {
      "trans_err": 0.17744890725828802,
      "scale_err": 0.5356954769879684,
      "orient_err": NaN,
      "vel_err": NaN,
      "attr_err": NaN
    },
    "barrier": {
      "trans_err": 1.0,
      "scale_err": 1.0,
      "orient_err": 1.0,
      "vel_err": NaN,
      "attr_err": NaN
    }
  },
  "tp_errors": {
    "trans_err": 0.609512042230359,
    "scale_err": 0.5095946426386735,
    "orient_err": 1.0997347400354773,
    "vel_err": 0.9278502838590262,
    "attr_err": 0.3576018155672781
  },
  "tp_scores": {
    "trans_err": 0.39048795776964096,
    "scale_err": 0.4904053573613265,
    "orient_err": 0.0,
    "vel_err": 0.07214971614097376,
    "attr_err": 0.6423981844327219
  },
  "nd_score": 0.2402243408910354,
  "eval_time": 3.9037282466888428,
  "cfg": {
    "class_range": {
      "car": 50,
      "truck": 50,
      "bus": 50,
      "trailer": 50,
      "construction_vehicle": 50,
      "pedestrian": 40,
      "motorcycle": 40,
      "bicycle": 40,
      "traffic_cone": 30,
      "barrier": 30
    },
    "dist_fcn": "center_distance",
    "dist_ths": [
      0.5,
      1.0,
      2.0,
      4.0
    ],
    "dist_th_tp": 2.0,
    "min_recall": 0.1,
    "min_precision": 0.1,
    "max_boxes_per_sample": 500,
    "mean_ap_weight": 5
  },
  "meta": {
    "use_camera": false,
    "use_lidar": true,
    "use_radar": false,
    "use_map": false,
    "use_external": false
  }
}