{
  "label_aps": {
    "car": {
      "0.5": 0.4008825055836371,
      "1.0": 0.6059695681722229,
      "2.0": 0.7194992288718848,
      "4.0": 0.7583865089032348
    },
    "truck": {
      "0.5": 0.07052777157866844,
      "1.0": 0.08653877377041477,
      "2.0": 0.10027041248766733,
      "4.0": 0.10608056030857459
    },
    "bus": {
      "0.5": 0.0,
      "1.0": 0.0,
      "2.0": 0.0,
      "4.0": 0.0
    },
    "trailer": {
      "0.5": 0.0,
      "1.0": 0.0,
      "2.0": 0.0,
      "4.0": 0.0
    },
    "construction_vehicle": {
      "0.5": 0.0,
      "1.0": 0.0,
      "2.0": 0.0,
      "4.0": 0.0
    },
    "pedestrian": {
      "0.5": 0.5822311288473139,
      "1.0": 0.6866201068557413,
      "2.0": 0.7163592534890483,
      "4.0": 0.7702994993829361
    },
    "motorcycle": {
      "0.5": 0.006816233668871925,
      "1.0": 0.02898519389917218,
      "2.0": 0.04258341901632948,
      "4.0": 0.07221911859651083
    },
    "bicycle": {
      "0.5": 0.0,
      "1.0": 0.0,
      "2.0": 0.0,
      "4.0": 0.0
    },
    "traffic_cone": {
      "0.5": 0.0,
      "1.0": 0.0,
      "2.0": 0.0,
      "4.0": 0.0
    },
    "barrier": {
      "0.5": 0.0,
      "1.0": 0.0,
      "2.0": 0.0,
      "4.0": 0.0
    }
  },
  "mean_dist_aps": {
    "car": 0.6211844528827449,
    "truck": 0.09085437953633128,
    "bus": 0.0,
    "trailer": 0.0,
    "construction_vehicle": 0.0,
    "pedestrian": 0.6888774971437598,
    "motorcycle": 0.037650991295221106,
    "bicycle": 0.0,
    "traffic_cone": 0.0,
    "barrier": 0.0
  },
  "mean_ap": 0.14385673208580568,
  "label_tp_errors": {
    "car": {
      "trans_err": 0.31385817790039133,
      "scale_err": 0.20036454039996596,
      "orient_err": 0.7847353806116308,
      "vel_err": 0.32383108245299375,
      "attr_err": 0.14970289328083614
    },
    "truck": {
      "trans_err": 0.30946773097044056,
      "scale_err": 0.24046053276506926,
      "orient_err": 0.29923585362275806,
      "vel_err": 0.08122775199256485,
      "attr_err": 0.0061479283000169345
    },
    "bus": {
      "trans_err": 1.0,
      "scale_err": 1.0,
      "orient_err": 1.0,
      "vel_err": 1.0,
      "attr_err": 1.0
    },
    "trailer": {
      "trans_err": 1.0,
      "scale_err": 1.0,
      "orient_err": 1.0,
      "vel_err": 1.0,
      "attr_err": 1.0
    },
    "construction_vehicle": {
      "trans_err": 1.0,
      "scale_err": 1.0,
      "orient_err": 1.0,
      "vel_err": 1.0,
      "attr_err": 1.0
    },
    "pedestrian": {
      "trans_err": 0.3268662827088341,
      "scale_err": 0.3044489002588671,
      "orient_err": 1.3826659893799997,
      "vel_err": 0.9567583242300379,
      "attr_err": 0.2819224264611148
    },
    "motorcycle": {
      "trans_err": 0.455523092998262,
      "scale_err": 0.32871839392897323,
      "orient_err": 1.5136296760236188,
      "vel_err": 0.5921415013702067,
      "attr_err": 0.3855920665399026
    },
    "bicycle": {
      "trans_err": 0.5091927419717523,
      "scale_err": 0.33514320268526177,
      "orient_err": 2.489595413013002,
      "vel_err": 0.7272261593080658,
      "attr_err": 0.1089492693113346
    },
    "traffic_cone": {
      "trans_err": 0.31742012974145034,
      "scale_err": 0.48448411150695103,
      "orient_err": NaN,
      "vel_err": NaN,
      "attr_err": NaN
    },
    "barrier": {
      "trans_err": 1.0,
      "scale_err": 1.0,
      "orient_err": 1.0,
      "vel_err": NaN,
      "attr_err": NaN
    }
  },
  "tp_errors": {
    "trans_err": 0.6232328156291131,
    "scale_err": 0.5893619681545088,
    "orient_err": 1.1633180347390009,
    "vel_err": 0.7101481024192335,
    "attr_err": 0.49153932298665065
  },
  "tp_scores": {
    "trans_err": 0.37676718437088685,
    "scale_err": 0.4106380318454912,
    "orient_err": 0.0,
    "vel_err": 0.28985189758076646,
    "attr_err": 0.5084606770133493
  },
  "nd_score": 0.2305001451239522,
  "eval_time": 3.9334969520568848,
  "cfg": {
    "class_range": {
      "car": 50,
      "truck": 50,
      "bus": 50,
      "trailer": 50,
      "construction_vehicle": 50,
      "pedestrian": 40,
      "motorcycle": 40,
      "bicycle": 40,
      "traffic_cone": 30,
      "barrier": 30
    },
    "dist_fcn": "center_distance",
    "dist_ths": [
      0.5,
      1.0,
      2.0,
      4.0
    ],
    "dist_th_tp": 2.0,
    "min_recall": 0.1,
    "min_precision": 0.1,
    "max_boxes_per_sample": 500,
    "mean_ap_weight": 5
  },
  "meta": {
    "use_camera": false,
    "use_lidar": true,
    "use_radar": false,
    "use_map": false,
    "use_external": false
  }
}