{
  "label_aps": {
    "car": {
      "0.5": 0.7339656928700716,
      "1.0": 0.8490427240123498,
      "2.0": 0.8826187515211891,
      "4.0": 0.8961237564959461
    },
    "truck": {
      "0.5": 0.35060184371580655,
      "1.0": 0.5380450812330042,
      "2.0": 0.6084303805958938,
      "4.0": 0.6420638108686205
    },
    "bus": {
      "0.5": 0.40319357076868406,
      "1.0": 0.639902140545544,
      "2.0": 0.74494909382408,
      "4.0": 0.7834094110792735
    },
    "trailer": {
      "0.5": 0.06561083894740567,
      "1.0": 0.259350996444057,
      "2.0": 0.4268011684973406,
      "4.0": 0.5241836750771119
    },
    "construction_vehicle": {
      "0.5": 0.01863443753594689,
      "1.0": 0.09724408886533399,
      "2.0": 0.1637322657975716,
      "4.0": 0.22023365052212723
    },
    "pedestrian": {
      "0.5": 0.7602192088728805,
      "1.0": 0.780226111136193,
      "2.0": 0.799319111895551,
      "4.0": 0.8175197281960429
    },
    "motorcycle": {
      "0.5": 0.3830280086089051,
      "1.0": 0.4510556535131323,
      "2.0": 0.45964179337658023,
      "4.0": 0.4667142185061715
    },
    "bicycle": {
      "0.5": 0.17382109323516107,
      "1.0": 0.18213601998645326,
      "2.0": 0.18282832335072477,
      "4.0": 0.18868625568850775
    },
    "traffic_cone": {
      "0.5": 0.5064002738366419,
      "1.0": 0.533491482594312,
      "2.0": 0.5561123701409835,
      "4.0": 0.5987719239945971
    },
    "barrier": {
      "0.5": 0.4627404915603408,
      "1.0": 0.6110292460800445,
      "2.0": 0.6603744641032863,
      "4.0": 0.6778766586575123
    }
  },
  "mean_dist_aps": {
    "car": 0.8404377312248892,
    "truck": 0.5347852791033313,
    "bus": 0.6428635540543954,
    "trailer": 0.3189866697414788,
    "construction_vehicle": 0.12496111068024493,
    "pedestrian": 0.7893210400251669,
    "motorcycle": 0.4401099185011973,
    "bicycle": 0.1818679230652117,
    "traffic_cone": 0.5486940126416335,
    "barrier": 0.6030052151002959
  },
  "mean_ap": 0.5025032454137845,
  "label_tp_errors": {
    "car": {
      "trans_err": 0.1889290562476409,
      "scale_err": 0.15634056293984294,
      "orient_err": 0.1537656960388462,
      "vel_err": 0.3063203298139304,
      "attr_err": 0.1978325451952314
    },
    "truck": {
      "trans_err": 0.33378325117900404,
      "scale_err": 0.19045784971052612,
      "orient_err": 0.15756526967745416,
      "vel_err": 0.2750103502448681,
      "attr_err": 0.24415589336426943
    },
    "bus": {
      "trans_err": 0.34454203606160805,
      "scale_err": 0.18328031572609235,
      "orient_err": 0.053034682824181105,
      "vel_err": 0.6001983069044803,
      "attr_err": 0.3257463939729316
    },
    "trailer": {
      "trans_err": 0.5885629906048295,
      "scale_err": 0.21644172528388247,
      "orient_err": 0.6001783525015457,
      "vel_err": 0.203524364058614,
      "attr_err": 0.12660811721775939
    },
    "construction_vehicle": {
      "trans_err": 0.6120608484704773,
      "scale_err": 0.42429936102572174,
      "orient_err": 1.1405025219017022,
      "vel_err": 0.13840029594466277,
      "attr_err": 0.36831884611820487
    },
    "pedestrian": {
      "trans_err": 0.16392269019898423,
      "scale_err": 0.27673049763003227,
      "orient_err": 0.41710773465383383,
      "vel_err": 0.23084119125619523,
      "attr_err": 0.0951827385470905
    },
    "motorcycle": {
      "trans_err": 0.23091143567722958,
      "scale_err": 0.2397906907260924,
      "orient_err": 0.40144998966709694,
      "vel_err": 0.658505838022282,
      "attr_err": 0.19316650043187533
    },
    "bicycle": {
      "trans_err": 0.2078394676076086,
      "scale_err": 0.2708765185323386,
      "orient_err": 0.5437023292991056,
      "vel_err": 0.22909106116555647,
      "attr_err": 0.03998077515722305
    },
    "traffic_cone": {
      "trans_err": 0.18317308522691028,
      "scale_err": 0.34422893921049297,
      "orient_err": NaN,
      "vel_err": NaN,
      "attr_err": NaN
    },
    "barrier": {
      "trans_err": 0.27483017580514807,
      "scale_err": 0.29093511064001865,
      "orient_err": 0.09324536333451847,
      "vel_err": NaN,
      "attr_err": NaN
    }
  },
  "tp_errors": {
    "trans_err": 0.312855503707944,
    "scale_err": 0.2593381571425041,
    "orient_err": 0.39561688221092045,
    "vel_err": 0.33023646717632366,
    "attr_err": 0.19887397625057318
  },
  "tp_scores": {
    "trans_err": 0.687144496292056,
    "scale_err": 0.7406618428574959,
    "orient_err": 0.6043831177890795,
    "vel_err": 0.6697635328236764,
    "attr_err": 0.8011260237494269
  },
  "nd_score": 0.6015595240580657,
  "eval_time": 94.49766969680786,
  "cfg": {
    "class_range": {
      "car": 50,
      "truck": 50,
      "bus": 50,
      "trailer": 50,
      "construction_vehicle": 50,
      "pedestrian": 40,
      "motorcycle": 40,
      "bicycle": 40,
      "traffic_cone": 30,
      "barrier": 30
    },
    "dist_fcn": "center_distance",
    "dist_ths": [
      0.5,
      1.0,
      2.0,
      4.0
    ],
    "dist_th_tp": 2.0,
    "min_recall": 0.1,
    "min_precision": 0.1,
    "max_boxes_per_sample": 500,
    "mean_ap_weight": 5
  },
  "meta": {
    "use_camera": false,
    "use_lidar": true,
    "use_radar": false,
    "use_map": false,
    "use_external": false
  }
}